…
A surprisingly large number of alleles are tied for maximum read count
in the dataset. Further investigation of this phenomenon could be
fruitful.  
Information on these alleles is printed below.

``` r
# Print instances where the read count is tied -------------------------
mh_data_filtered %>%
  group_by(sample_id, target) %>%
  filter(n() > 1) %>%
  select(target, sample_id, n_read, ASV)
```

    ## # A tibble: 354 × 4
    ## # Groups:   sample_id, target [177]
    ##    target                      sample_id     n_read ASV   
    ##    <chr>                       <chr>          <int> <chr> 
    ##  1 PvP01_05_v1_1352001_1352200 PV_SWGA_OLD1      89 ASV7  
    ##  2 PvP01_05_v1_1352001_1352200 PV_SWGA_OLD1      89 ASV177
    ##  3 PvP01_11_v1_1483801_1484000 PV_SWGA_OLD1       7 ASV83 
    ##  4 PvP01_11_v1_1483801_1484000 PV_SWGA_OLD1       7 ASV364
    ##  5 PvP01_05_v1_1352001_1352200 PV_SWGA_OLD10     79 ASV7  
    ##  6 PvP01_05_v1_1352001_1352200 PV_SWGA_OLD10     79 ASV177
    ##  7 PvP01_05_v1_1352001_1352200 PV_SWGA_OLD11    103 ASV7  
    ##  8 PvP01_05_v1_1352001_1352200 PV_SWGA_OLD11    103 ASV177
    ##  9 PvP01_11_v1_1483801_1484000 PV_SWGA_OLD11      8 ASV83 
    ## 10 PvP01_11_v1_1483801_1484000 PV_SWGA_OLD11      8 ASV364
    ## # ℹ 344 more rows
…
