…
# Compute and print sample read count and parasitemia ------------------
sample_mean_total_read_counts <- rl_read_counts %>%
  group_by(rep_id, sample_id, lib_name, ct, DARC_Phenotype) %>%
  summarize(n_read = sum(n_read), .groups = "drop") %>%
  group_by(sample_id, lib_name, ct, DARC_Phenotype) %>%
  summarize(n_read = mean(n_read), .groups = "drop") %>%
  filter(! is.na(ct)) %>%
  # Two samples have a suspiciously low Ct
  filter(ct > 15) %>%
  mutate(parasitemia = (10^((ct - 41.663)/-3.289)))
sample_mean_total_read_counts %>%
  arrange(parasitemia)
```

    ## # A tibble: 54 × 6
    ##    sample_id lib_name    ct DARC_Phenotype n_read parasitemia
    ##    <chr>     <chr>    <dbl> <chr>           <dbl>       <dbl>
    ##  1 MH2_C01   LB2       38.4 positive        1188.        9.97
    ##  2 MH1_C02   LB2       36.0 heterozygous    1027        51.0 
    ##  3 MH4_A11   LB2       36.0 positive        2046.       51.2 
    ##  4 MH2_D04   LB2       34.7 positive        6337       131.  
    ##  5 MH1_A04   LB2       34.7 heterozygous    1014.      135.  
    ##  6 MH2_D11   LB2       34.2 positive       68071       187.  
    ##  7 MH4_B04   LB2       33.6 positive        3241       286.  
    ##  8 MH1_B10   LB2       33.5 heterozygous    3251       303.  
    ##  9 MH4_D12   LB2       33.1 positive       16656       411.  
    ## 10 MH2_B08   LB2       32.8 positive       43558       499.  
    ## # ℹ 44 more rows
…
